<svg width="16" height="16" viewBox="0 0 16 16" fill="none" xmlns="http://www.w3.org/2000/svg">
<path d="M1.29539e-06 9L12.17 9L6.58 14.59L8 16L16 8L8 6.99382e-07L6.59 1.41L12.17 7L1.12054e-06 7L1.29539e-06 9Z" fill="#00BFA5"/>
</svg>
