{
  "modal-trigger#quickview": {
    "children": [
      "icon-expand",
      "modal-layout#quickview"
    ],
    "props": {
      "blockClass": "quickview"
    }
  },

  "modal-layout#quickview": {
    "children": [
      "modal-header#quickview",
      "flex-layout.row#quickview-main-row"
    ],
    "props": {
      "blockClass": "quickview"
    }
  },

  "modal-header#quickview": {
    "props": {
      "blockClass": "quickview"
    }
  },

  "flex-layout.row#quickview-main-row": {
    "children": [
      "product-price-savings#summary",
      "flex-layout.col#quickview-images",
      "flex-layout.col#quickview-product-details"
    ],
    "props": {
      "blockClass": "quickviewMainRow",
      "colSizing": "auto"
    }
  },

  "flex-layout.col#quickview-images": {
    "children": [
      "product-images#quickview",
      "product-bookmark",
      "product-specification-badges",
      "flex-layout.row#product-highlights"
    ]
  },

  "product-images#quickview": {
    "props": {
      "aspectRatio": {
        "desktop": "auto",
        "phone": "auto"
      },
      "maxHeight": "500px",
      "displayThumbnailsArrows": true,
      "showNavigationArrows": false,
      "showPaginationDots": false
    }
  },

  "flex-layout.row#product-highlights": {
    "children": [
      "vtex.product-highlights@2.x:product-highlights#collection"
    ],
    "props": {
      "blockClass": "product-highlights-quickview"
    }
  },
  "flex-layout.col#quickview-product-details": {
    "children": [
      "modal-content#quickview",
      "modal-actions#quickview"
    ],
    "props": {
      "preventVerticalStretch": true,
      "blockClass": "quickviewDetails"
    }
  },

  "modal-content#quickview": {
    "children": [
      "vtex.store-components:product-name",
      "flex-layout.row#product-menu-quickview",
      "sku-selector",
      "flex-layout.col#quickviewPrice"
    ],
    "props": {
      "blockClass": "quickviewContent"
    }
  },

  "vtex.store-components:product-name": {
    "props": {
      "blockClass": "quickview"
    }
  },

  "flex-layout.row#product-menu-quickview": {
    "children": [
      "flex-layout.col#product-details1",
      "flex-layout.col#product-brand"
    ],
    "props": {
      "blockClass": "product-menu-quickview"
    }
  },

  "flex-layout.col#quickviewPrice": {
    "children": [
      "flex-layout.row#list-price-savings",
      "flex-layout.row#selling-price",
      "product-installments"
    ]
  },

  "modal-actions#quickview": {
    "props": {
      "blockClass": "quickview"
    },
    "children": [
      "flex-layout.row#quickview-actions-1",
      "flex-layout.row#quickview-actions-2"
    ]
  },

  "flex-layout.row#quickview-actions-1": {
    "children": [
      "flex-layout.col#quickview-add-to-card-button"
    ],
    "props": {
      "colSizing": "auto",
      "colGap": 6,
      "blockClass": "addToCartRow"
    }
  },

  "flex-layout.col#quickview-add-to-card-button": {
    "children": [
      "add-to-cart-button"
    ],
    "props": {
      "width": "grow"
    }
  },

  "flex-layout.row#quickview-actions-2": {
    "children": [
      "add-to-list-btn"
    ]
  }

}