{
  "store.home": {
    "blocks": [
      "list-context.image-list#home-slider-carousel-1",
      "flex-layout.row#home-row-1-0",
      "__fold__.experimentalLazyAssets",
      "flex-layout.row#shelfTitle",
      "flex-layout.row#shelf",
      "flex-layout.row#home-row-1",
      "flex-layout.row#home-row-2",
      "flex-layout.row#home-row-3"
    ]
  }
}
